Code,Description,HVAC,Service,Refrigeration,Category
965.00.00.00.00,Τόκοι & έξοδα ομολογιακών δανείων,20%,30%,50%,Τόκοι Δανείων
965.00.00.00.99,Τόκοι & έξοδα ομολογιακών δανείων//αντίθετος λογαρ,20%,30%,50%,Τόκοι Δανείων
965.01.00.00.00,Τόκοι & έξοδα μακρ/σμων υποχρ κεντρ/,20%,30%,50%,Τόκοι Δανείων
965.01.00.00.23,Τόκοι & έξοδα μακρ/σμων υποχρ κεντρ/ 23%,20%,30%,50%,Τόκοι Δανείων
965.01.00.00.24,Τόκοι & έξοδα μακρ/σμων υποχρ κεντρ/ 24%,20%,30%,50%,Τόκοι Δανείων
965.01.00.00.99,Τόκοι & έξοδα μακρ/σμων υποχρ κεντρ//αντίθετος λογαριασμός,20%,30%,50%,Τόκοι Δανείων
965.03.00.00.00,Τόκοι χορ/σεων εγγυημ με αξ/φα κεντ 00%,20%,30%,50%,Τόκοι Δανείων
965.03.00.00.99,Τόκοι χορ/σεων εγγυημ με αξ/φα κεντ//αντίθετος λογαρ,20%,30%,50%,Τόκοι Δανείων
965.03.01.00.00,Λοιπά έξοδα (εισφ 128) χορ/σεων κεντ 0%,20%,30%,50%,Τόκοι Δανείων
965.07.00.00.00,Τόκοι νόμου 2601 κεντρικού με ΦΠΑ 00%,20%,30%,50%,Τόκοι Δανείων
,,,,,
965.10.00.00.00,Προμήθειες Ε/Ε κεντρικού με ΦΠΑ 00%,10%,20%,70%,Προμήθειες Εγγυητικών Επιστολών
965.10.00.00.99,Προμήθειες Ε/Ε κεντρικού//αντίθετος λογαριασμός,10%,20%,70%,Προμήθειες Εγγυητικών Επιστολών
,,,,,
961.01.01.00.00,Αμοιβές & έξοδα διαφόρων τρίτων ΦΠΑ 00%,33%,33%,34%,Λοιπά Έξοδα Τραπεζών
965.90.01.00.00,Προμήθειες & έξοδα factoring με ΦΠΑ 0%,33%,33%,34%,Λοιπά Έξοδα Τραπεζών
965.90.01.00.18,Προμήθειες & έξοδα factoring με ΦΠΑ 18%,33%,33%,34%,Λοιπά Έξοδα Τραπεζών
965.90.01.00.19,Προμήθειες & έξοδα FACTORING με ΦΠΑ 19%,33%,33%,34%,Λοιπά Έξοδα Τραπεζών
965.90.01.00.21,Προμήθειες & έξοδα factoring με ΦΠΑ 21%,33%,33%,34%,Λοιπά Έξοδα Τραπεζών
965.90.01.00.23,Προμήθειες & έξοδα factoring με ΦΠΑ 23%,33%,33%,34%,Λοιπά Έξοδα Τραπεζών
965.90.01.00.24,Προμήθειες & έξοδα factoring με ΦΠΑ 24%,33%,33%,34%,Λοιπά Έξοδα Τραπεζών
965.98.00.00.00,Εισπρακτικά αξιογράφων εισπρ κεντρ 00%,33%,33%,34%,Λοιπά Έξοδα Τραπεζών
965.98.01.00.00,Λοιπές προμήθειες & έξοδα Τραπ κεντρ 00,33%,33%,34%,Λοιπά Έξοδα Τραπεζών
965.98.03.00.00,Προμήθεια πινακίων επιταγών κεντρ 00%,33%,33%,34%,Λοιπά Έξοδα Τραπεζών